…
# On average, how many vowels per word?
mean(str_count(words, "[aeiou]"))
#> [1] 1.99
```

和`mutate()`一起使用`str_count()`效果也很好：

```
df %>% 
  mutate(
    vowels = str_count(word, "[aeiou]"),
    consonants = str_count(word, "[^aeiou]")
  )
#> # A tibble: 980 × 4
#>       word     i vowels consonants
#>      <chr> <int>  <int>      <int>
#> 1        a     1      1          0
#> 2     able     2      2          2
#> 3    about     3      3          2
#> 4 absolute     4      4          4
#> 5   accept     5      2          4
#> 6  account     6      3          4
#> # ... with 974 more rows
```
…
(很明显，我们的方法仍有很大欠缺，它不仅匹配了名词还匹配了smooth和parked这类形容词。)

如果你的数据是tibble类型，通常使用`tidyr::extract()`来处理更简单。它用起来和`str_match()`差不多，但要你为匹配结果命名：

```
tibble(sentence = sentences) %>% 
  tidyr::extract(
    sentence, c("article", "noun"), "(a|the) ([^ ]+)", 
    remove = FALSE
  )
#> # A tibble: 720 × 3
#>                                      sentence article    noun
#> *                                       <chr>   <chr>   <chr>
#> 1  The birch canoe slid on the smooth planks.     the  smooth
#> 2 Glue the sheet to the dark blue background.     the   sheet
#> 3      It's easy to tell the depth of a well.     the   depth
#> 4    These days a chicken leg is a rare dish.       a chicken
#> 5        Rice is often served in round bowls.    <NA>    <NA>
#> 6       The juice of lemons makes fine punch.    <NA>    <NA>
#> # ... with 714 more rows
```
…
